<svg xmlns="http://www.w3.org/2000/svg" xmlns:xlink="http://www.w3.org/1999/xlink" width="45" height="45" viewBox="0 0 45 45">
  <defs>
    <clipPath id="clip-ic_terdekat">
      <rect width="45" height="45"/>
    </clipPath>
  </defs>
  <g id="ic_terdekat" clip-path="url(#clip-ic_terdekat)">
    <g id="Group_299" data-name="Group 299" transform="translate(2.041 1.927)">
      <g id="Group_297" data-name="Group 297" transform="translate(6.959 2.073)">
        <path id="Path_3632" data-name="Path 3632" d="M28.2,13.85a13.837,13.837,0,0,1-6.325,11.629,4.252,4.252,0,0,0-1.389,1.467l-4.974,8.787c-.011.019-.023.038-.035.057a1.333,1.333,0,0,1-2.287-.057L8.213,26.946a4.231,4.231,0,0,0-1.387-1.464A13.851,13.851,0,0,1,14.151,0q.67-.009,1.325.044A13.849,13.849,0,0,1,28.2,13.85Zm0,0" transform="translate(-0.499 -0.001)" fill="#44bfd7"/>
        <path id="Path_3633" data-name="Path 3633" d="M57.61,14.445a13.837,13.837,0,0,1-6.325,11.629A4.252,4.252,0,0,0,49.9,27.54l-4.974,8.787c-.011.019-.023.038-.035.057-.013-.019-.024-.037-.035-.057L39.877,27.54a4.231,4.231,0,0,0-1.387-1.464A13.851,13.851,0,0,1,44.888.641,13.849,13.849,0,0,1,57.61,14.445Zm0,0" transform="translate(-29.911 -0.595)" fill="#7cd2e3"/>
        <path id="Path_3634" data-name="Path 3634" d="M71.909,60.959a10.219,10.219,0,1,1-9.1-10.164A10.227,10.227,0,0,1,71.909,60.959Zm0,0" transform="translate(-47.833 -47.127)" fill="#c2eaf2"/>
        <path id="Path_3635" data-name="Path 3635" d="M101.322,61.761a10.227,10.227,0,0,1-9.1,10.165,10.226,10.226,0,0,1,0-20.328A10.228,10.228,0,0,1,101.322,61.761Zm0,0" transform="translate(-77.246 -47.929)" fill="#def4f8"/>
      </g>
      <g id="Group_298" data-name="Group 298" transform="translate(14.089 9.111)">
        <path id="Path_3243" data-name="Path 3243" d="M17.81,46.554H9.784a1.777,1.777,0,1,1,0-3.554H17.81a1.777,1.777,0,1,1,0,3.554Z" transform="translate(-7.108 -38.558)" fill="#f89c8d"/>
        <path id="Path_3244" data-name="Path 3244" d="M18.7,45.665a1.759,1.759,0,0,0,.731-.16,1.717,1.717,0,0,1-.361.529,1.8,1.8,0,0,1-1.262.52H9.782A1.776,1.776,0,0,1,8.52,43.52a1.724,1.724,0,0,1,.531-.36A1.758,1.758,0,0,1,9.782,43h8.027a1.788,1.788,0,0,1,1.177.444,1.7,1.7,0,0,1,.491.711.944.944,0,0,1-.825.484.967.967,0,0,1-.423-.1.929.929,0,0,0-.839,0l-.945.471a.929.929,0,0,1-.838,0l-.945-.471a.929.929,0,0,0-.838,0l-.945.471a.929.929,0,0,1-.838,0l-.945-.471a.929.929,0,0,0-.838,0l-.718.36a1.385,1.385,0,0,1-.259.093,1.779,1.779,0,0,0,1.4.671Z" transform="translate(-7.106 -38.558)" fill="#f8664f"/>
        <path id="Path_3245" data-name="Path 3245" d="M6,55H19.378v.888a1.78,1.78,0,0,1-1.784,1.777H7.784A1.78,1.78,0,0,1,6,55.888Z" transform="translate(-6 -45.227)" fill="#fcbc04"/>
        <path id="Path_3246" data-name="Path 3246" d="M22.913,55l-.357.444L22.2,55Z" transform="translate(-14.976 -45.227)" fill="#e59730"/>
        <path id="Path_3247" data-name="Path 3247" d="M22.913,55l-.357.444L22.2,55Z" transform="translate(-14.976 -45.227)" fill="#e59730"/>
        <path id="Path_3248" data-name="Path 3248" d="M18.7,52.777H8.892a.888.888,0,1,1,0-1.777H18.7a.888.888,0,1,1,0,1.777Z" transform="translate(-7.108 -43.004)" fill="#cc5144"/>
        <path id="Path_3249" data-name="Path 3249" d="M21.784,53.221,20,51h3.567Z" transform="translate(-13.757 -43.004)" fill="#f7f754"/>
        <path id="Path_3250" data-name="Path 3250" d="M21.631,51.476,21.249,51H20l1.784,2.221,1.01-1.258A1.329,1.329,0,0,1,21.631,51.476Z" transform="translate(-13.757 -43.004)" fill="#f9e109"/>
        <path id="Path_3251" data-name="Path 3251" d="M7,43a1.436,1.436,0,0,0,.8,1.286l.34.17a1.446,1.446,0,0,0,1.291,0l.717-.355a.945.945,0,0,1,.842,0l.942.469a.945.945,0,0,0,.842,0l.942-.469a.945.945,0,0,1,.842,0l.942.469a.945.945,0,0,0,.842,0l.942-.469a.945.945,0,0,1,.842,0,.942.942,0,0,0,1.363-.84V43Z" transform="translate(-6.554 -38.558)" fill="#c4f236"/>
        <path id="Path_3252" data-name="Path 3252" d="M14.919,33H10.459A4.451,4.451,0,0,0,6,37.442H19.378A4.451,4.451,0,0,0,14.919,33Z" transform="translate(-6 -33)" fill="#fcbc04"/>
        <path id="Path_3253" data-name="Path 3253" d="M19.378,37.648H6A4.445,4.445,0,0,1,9.264,33.37a4.011,4.011,0,0,0,3.871,2.945h6.038A4.386,4.386,0,0,1,19.378,37.648Z" transform="translate(-6 -33.206)" fill="#e59730"/>
        <path id="Path_3254" data-name="Path 3254" d="M19.378,55.888a1.78,1.78,0,0,1-1.784,1.777H7.784A1.78,1.78,0,0,1,6,55.888V55h.95a1.779,1.779,0,0,0,1.726,1.333H18.04A2.209,2.209,0,0,0,19.378,55.888Z" transform="translate(-6 -45.227)" fill="#e59730"/>
        <path id="Path_3255" data-name="Path 3255" d="M19.486,43v.258a.63.63,0,0,1-.022.187H7.758a1.363,1.363,0,0,0,.486.4l.339.173a1.47,1.47,0,0,0,1.293,0l.718-.36a.929.929,0,0,1,.838,0l.945.471a.929.929,0,0,0,.838,0l.945-.471a.929.929,0,0,1,.838,0l.945.471a.929.929,0,0,0,.838,0l.945-.471a.929.929,0,0,1,.838,0,.94.94,0,0,0,.829,0,.945.945,0,0,1-.852.538.968.968,0,0,1-.423-.1.929.929,0,0,0-.839,0l-.945.471a.929.929,0,0,1-.838,0l-.945-.471a.929.929,0,0,0-.838,0l-.945.471a.929.929,0,0,1-.838,0l-.945-.471a.929.929,0,0,0-.838,0l-.718.36a1.469,1.469,0,0,1-1.293,0L7.8,44.284A1.425,1.425,0,0,1,7,43Z" transform="translate(-6.554 -38.558)" fill="#a1d51c"/>
        <g id="Group_110" data-name="Group 110" transform="translate(2.297 0.585)">
          <g id="Group_109" data-name="Group 109" transform="translate(2.066 0)">
            <ellipse id="Ellipse_36" data-name="Ellipse 36" cx="0.516" cy="0.515" rx="0.516" ry="0.515" transform="translate(3.099 1.029)" fill="#f9e109"/>
            <ellipse id="Ellipse_37" data-name="Ellipse 37" cx="0.516" cy="0.515" rx="0.516" ry="0.515" transform="translate(1.033)" fill="#f9e109"/>
            <ellipse id="Ellipse_38" data-name="Ellipse 38" cy="0.515" ry="0.515" transform="translate(0 1.029)" fill="#f9e109"/>
            <ellipse id="Ellipse_39" data-name="Ellipse 39" cx="0.516" cy="0.515" rx="0.516" ry="0.515" transform="translate(6.198 1.029)" fill="#f9e109"/>
          </g>
          <ellipse id="Ellipse_40" data-name="Ellipse 40" cx="0.516" cy="0.515" rx="0.516" ry="0.515" transform="translate(0 1.029)" fill="#fcbc04"/>
          <ellipse id="Ellipse_41" data-name="Ellipse 41" cx="0.516" cy="0.515" rx="0.516" ry="0.515" transform="translate(6.198 0)" fill="#f9e109"/>
        </g>
        <path id="Path_3256" data-name="Path 3256" d="M15.852,37.725A.446.446,0,0,1,15,37.539a.454.454,0,0,1,.2-.369h0A3.872,3.872,0,0,0,15.852,37.725Z" transform="translate(-10.987 -35.318)" fill="#fcbc04"/>
      </g>
    </g>
  </g>
</svg>
